<?xml version="1.0" encoding="UTF-8" standalone="no"?>
<!-- Created with Inkscape (http://www.inkscape.org/) -->

<svg
   xmlns:dc="http://purl.org/dc/elements/1.1/"
   xmlns:cc="http://creativecommons.org/ns#"
   xmlns:rdf="http://www.w3.org/1999/02/22-rdf-syntax-ns#"
   xmlns:svg="http://www.w3.org/2000/svg"
   xmlns="http://www.w3.org/2000/svg"
   xmlns:sodipodi="http://sodipodi.sourceforge.net/DTD/sodipodi-0.dtd"
   xmlns:inkscape="http://www.inkscape.org/namespaces/inkscape"
   width="128.69333mm"
   height="200.94223mm"
   viewBox="0 0 455.99998 712.00003"
   id="svg5178"
   version="1.1"
   inkscape:version="0.91 r13725"
   sodipodi:docname="buttons.svg">
  <defs
     id="defs5180">
    <filter
       id="filter4346"
       inkscape:label="z-depth2"
       style="color-interpolation-filters:sRGB">
      <feFlood
         id="feFlood4348"
         result="flood"
         flood-color="rgb(0,0,0)"
         flood-opacity="0.16" />
      <feComposite
         id="feComposite4350"
         result="composite1"
         operator="in"
         in2="SourceGraphic"
         in="flood" />
      <feGaussianBlur
         id="feGaussianBlur4352"
         result="blur"
         stdDeviation="3" />
      <feOffset
         id="feOffset4354"
         result="offset"
         dy="3"
         dx="0" />
      <feComposite
         id="feComposite4356"
         result="fbSourceGraphic"
         operator="over"
         in2="offset"
         in="SourceGraphic" />
      <feColorMatrix
         id="feColorMatrix4358"
         values="0 0 0 -1 0 0 0 0 -1 0 0 0 0 -1 0 0 0 0 1 0"
         in="fbSourceGraphic"
         result="fbSourceGraphicAlpha" />
      <feFlood
         in="fbSourceGraphic"
         result="flood"
         flood-color="rgb(0,0,0)"
         flood-opacity="0.23"
         id="feFlood4360" />
      <feComposite
         result="composite1"
         operator="in"
         in="flood"
         in2="fbSourceGraphic"
         id="feComposite4362" />
      <feGaussianBlur
         result="blur"
         stdDeviation="3"
         id="feGaussianBlur4364" />
      <feOffset
         result="offset"
         dy="3"
         dx="0"
         id="feOffset4366" />
      <feComposite
         result="composite2"
         operator="over"
         in="fbSourceGraphic"
         in2="offset"
         id="feComposite4368" />
    </filter>
    <filter
       id="filter4284"
       inkscape:label="z-depth1"
       style="color-interpolation-filters:sRGB">
      <feFlood
         id="feFlood4286"
         result="flood"
         flood-color="rgb(0,0,0)"
         flood-opacity="0.12" />
      <feComposite
         id="feComposite4288"
         result="composite1"
         operator="in"
         in2="SourceGraphic"
         in="flood" />
      <feGaussianBlur
         id="feGaussianBlur4290"
         result="blur"
         stdDeviation="1.5" />
      <feOffset
         id="feOffset4292"
         result="offset"
         dy="1"
         dx="0" />
      <feComposite
         id="feComposite4294"
         result="fbSourceGraphic"
         operator="over"
         in2="offset"
         in="SourceGraphic" />
      <feColorMatrix
         id="feColorMatrix4332"
         values="0 0 0 -1 0 0 0 0 -1 0 0 0 0 -1 0 0 0 0 1 0"
         in="fbSourceGraphic"
         result="fbSourceGraphicAlpha" />
      <feFlood
         in="fbSourceGraphic"
         result="flood"
         flood-color="rgb(0,0,0)"
         flood-opacity="0.24"
         id="feFlood4334" />
      <feComposite
         result="composite1"
         operator="in"
         in="flood"
         in2="fbSourceGraphic"
         id="feComposite4336" />
      <feGaussianBlur
         result="blur"
         stdDeviation="1"
         id="feGaussianBlur4338" />
      <feOffset
         result="offset"
         dy="1"
         dx="0"
         id="feOffset4340" />
      <feComposite
         result="composite2"
         operator="over"
         in="fbSourceGraphic"
         in2="offset"
         id="feComposite4342" />
      <feBlend
         mode="normal"
         id="feBlend5366"
         in2="composite2" />
    </filter>
    <filter
       id="filter4375"
       inkscape:label="z-depth3"
       style="color-interpolation-filters:sRGB">
      <feFlood
         id="feFlood4377"
         result="flood"
         flood-color="rgb(0,0,0)"
         flood-opacity="0.19" />
      <feComposite
         id="feComposite4379"
         result="composite1"
         operator="in"
         in2="SourceGraphic"
         in="flood" />
      <feGaussianBlur
         id="feGaussianBlur4381"
         result="blur"
         stdDeviation="10" />
      <feOffset
         id="feOffset4383"
         result="offset"
         dy="10"
         dx="0" />
      <feComposite
         id="feComposite4385"
         result="fbSourceGraphic"
         operator="over"
         in2="offset"
         in="SourceGraphic" />
      <feColorMatrix
         id="feColorMatrix4387"
         values="0 0 0 -1 0 0 0 0 -1 0 0 0 0 -1 0 0 0 0 1 0"
         in="fbSourceGraphic"
         result="fbSourceGraphicAlpha" />
      <feFlood
         in="fbSourceGraphic"
         result="flood"
         flood-color="rgb(0,0,0)"
         flood-opacity="0.23"
         id="feFlood4389" />
      <feComposite
         result="composite1"
         operator="in"
         in="flood"
         in2="fbSourceGraphic"
         id="feComposite4391" />
      <feGaussianBlur
         result="blur"
         stdDeviation="3"
         id="feGaussianBlur4393" />
      <feOffset
         result="offset"
         dy="6"
         dx="0"
         id="feOffset4395" />
      <feComposite
         result="composite2"
         operator="over"
         in="fbSourceGraphic"
         in2="offset"
         id="feComposite4397" />
    </filter>
    <filter
       id="filter5094"
       inkscape:label="z-depth2"
       style="color-interpolation-filters:sRGB">
      <feFlood
         id="feFlood5096"
         result="flood"
         flood-color="rgb(0,0,0)"
         flood-opacity="0.16" />
      <feComposite
         id="feComposite5098"
         result="composite1"
         operator="in"
         in2="SourceGraphic"
         in="flood" />
      <feGaussianBlur
         id="feGaussianBlur5100"
         result="blur"
         stdDeviation="3" />
      <feOffset
         id="feOffset5102"
         result="offset"
         dy="3"
         dx="0" />
      <feComposite
         id="feComposite5104"
         result="fbSourceGraphic"
         operator="over"
         in2="offset"
         in="SourceGraphic" />
      <feColorMatrix
         id="feColorMatrix5106"
         values="0 0 0 -1 0 0 0 0 -1 0 0 0 0 -1 0 0 0 0 1 0"
         in="fbSourceGraphic"
         result="fbSourceGraphicAlpha" />
      <feFlood
         in="fbSourceGraphic"
         result="flood"
         flood-color="rgb(0,0,0)"
         flood-opacity="0.23"
         id="feFlood5108" />
      <feComposite
         result="composite1"
         operator="in"
         in="flood"
         in2="fbSourceGraphic"
         id="feComposite5110" />
      <feGaussianBlur
         result="blur"
         stdDeviation="3"
         id="feGaussianBlur5112" />
      <feOffset
         result="offset"
         dy="3"
         dx="0"
         id="feOffset5114" />
      <feComposite
         result="composite2"
         operator="over"
         in="fbSourceGraphic"
         in2="offset"
         id="feComposite5116" />
    </filter>
  </defs>
  <sodipodi:namedview
     id="base"
     pagecolor="#ffffff"
     bordercolor="#666666"
     borderopacity="1.0"
     inkscape:pageopacity="0.0"
     inkscape:pageshadow="2"
     inkscape:zoom="0.35"
     inkscape:cx="-361.28571"
     inkscape:cy="350.28574"
     inkscape:document-units="px"
     inkscape:current-layer="layer1"
     showgrid="false"
     fit-margin-top="0"
     fit-margin-left="0"
     fit-margin-right="0"
     fit-margin-bottom="0"
     inkscape:window-width="1983"
     inkscape:window-height="1128"
     inkscape:window-x="65"
     inkscape:window-y="24"
     inkscape:window-maximized="1" />
  <metadata
     id="metadata5183">
    <rdf:RDF>
      <cc:Work
         rdf:about="">
        <dc:format>image/svg+xml</dc:format>
        <dc:type
           rdf:resource="http://purl.org/dc/dcmitype/StillImage" />
        <dc:title></dc:title>
      </cc:Work>
    </rdf:RDF>
  </metadata>
  <g
     inkscape:label="Layer 1"
     inkscape:groupmode="layer"
     id="layer1"
     transform="translate(-732,-627.79075)">
    <rect
       style="display:inline;fill:#eeeeee;fill-opacity:1;stroke:none;enable-background:new"
       id="rect25910"
       width="456"
       height="167.99989"
       x="732"
       y="667.79089" />
    <rect
       y="859.79089"
       x="732"
       height="479.99991"
       width="456"
       id="rect25912"
       style="display:inline;fill:#eeeeee;fill-opacity:1;stroke:none;enable-background:new" />
    <g
       transform="translate(-2564,5185.4285)"
       style="display:inline;enable-background:new"
       id="g5531">
      <rect
         ry="2"
         rx="2"
         y="-4205.6377"
         x="3388"
         height="36"
         width="88"
         id="rect5505"
         style="opacity:1;fill:#000000;fill-opacity:0;stroke:none;stroke-width:1;stroke-linecap:round;stroke-miterlimit:4;stroke-dasharray:1, 3;stroke-dashoffset:0;stroke-opacity:0.22352941" />
      <flowRoot
         style="font-style:normal;font-variant:normal;font-weight:500;font-stretch:normal;font-size:17.95415497px;line-height:125%;font-family:Roboto;-inkscape-font-specification:'Roboto, Medium';text-align:start;letter-spacing:0px;word-spacing:0px;writing-mode:lr-tb;text-anchor:start;display:inline;fill:#009688;fill-opacity:1;stroke:none;stroke-width:1px;stroke-linecap:butt;stroke-linejoin:miter;stroke-opacity:1"
         id="flowRoot4206-4-9"
         xml:space="preserve"
         transform="translate(3339.2744,-4192.697)"><flowRegion
           id="flowRegion4208-0-9"><rect
             y="-3.7940509"
             x="-0.12398586"
             height="82.076134"
             width="185.69725"
             id="rect4210-1-9" /></flowRegion><flowPara
           style="font-size:14px;text-align:center;text-anchor:middle;fill:#009688;fill-opacity:1"
           id="flowPara4212-8-6">NORMAL</flowPara></flowRoot>    </g>
    <flowRoot
       transform="translate(858.96476,911.86489)"
       style="font-style:normal;font-variant:normal;font-weight:normal;font-stretch:normal;font-size:17.80747032px;line-height:125%;font-family:Roboto;-inkscape-font-specification:Roboto;text-align:start;letter-spacing:0px;word-spacing:0px;writing-mode:lr-tb;text-anchor:start;display:inline;fill:#000000;fill-opacity:0.54117647;stroke:none;stroke-width:1px;stroke-linecap:butt;stroke-linejoin:miter;stroke-opacity:1;enable-background:new"
       id="flowRoot27622-1"
       xml:space="preserve"><flowRegion
         id="flowRegion27624-3"><rect
           y="-8.4147177"
           x="-0.83251446"
           height="58.312714"
           width="282.099"
           id="rect27626-3" /></flowRegion><flowPara
         style="font-style:normal;font-variant:normal;font-weight:500;font-stretch:normal;font-size:12px;line-height:172.00000286%;font-family:Roboto;-inkscape-font-specification:'Roboto Medium';fill:#000000;fill-opacity:0.54117647"
         id="flowPara27628-0">Flat</flowPara></flowRoot>    <flowRoot
       xml:space="preserve"
       id="flowRoot25526"
       style="font-style:normal;font-variant:normal;font-weight:normal;font-stretch:normal;font-size:17.80747032px;line-height:125%;font-family:Roboto;-inkscape-font-specification:Roboto;text-align:start;letter-spacing:0px;word-spacing:0px;writing-mode:lr-tb;text-anchor:start;display:inline;fill:#000000;fill-opacity:0.54117647;stroke:none;stroke-width:1px;stroke-linecap:butt;stroke-linejoin:miter;stroke-opacity:1;enable-background:new"
       transform="translate(1028.9648,911.86489)"><flowRegion
         id="flowRegion25528"><rect
           id="rect25530"
           width="282.099"
           height="58.312714"
           x="-0.83251446"
           y="-8.4147177" /></flowRegion><flowPara
         id="flowPara25532"
         style="font-style:normal;font-variant:normal;font-weight:500;font-stretch:normal;font-size:12px;line-height:172.00000286%;font-family:Roboto;-inkscape-font-specification:'Roboto Medium';fill:#000000;fill-opacity:0.54117647">Raised</flowPara></flowRoot>    <g
       transform="translate(-2564,5185.4285)"
       id="g25885"
       style="display:inline;filter:url(#filter4346);enable-background:new">
      <rect
         y="-4472.6377"
         x="3393"
         height="76.000595"
         width="76.000595"
         id="rect25883"
         style="opacity:1;fill:none;fill-opacity:1;stroke:none;stroke-width:1;stroke-linecap:round;stroke-miterlimit:4;stroke-dasharray:none;stroke-opacity:1" />
      <circle
         r="28"
         cy="-4434.6377"
         cx="3431"
         id="path25536"
         style="opacity:1;fill:#009688;fill-opacity:1;stroke:none;stroke-width:1;stroke-linecap:round;stroke-miterlimit:4;stroke-dasharray:none;stroke-opacity:1" />
      <path
         inkscape:connector-curvature="0"
         d="m 3438,-4433.6378 -6,0 0,6 -2,0 0,-6 -6,0 0,-2 6,0 0,-6 2,0 0,6 6,0 0,2 z"
         style="fill:#ffffff;fill-opacity:1;stroke:none"
         id="path24098" />
    </g>
    <g
       style="display:inline;filter:url(#filter4375);enable-background:new"
       id="g25900"
       transform="translate(-2380,5185.4285)">
      <rect
         style="opacity:1;fill:none;fill-opacity:1;stroke:none;stroke-width:1;stroke-linecap:round;stroke-miterlimit:4;stroke-dasharray:none;stroke-opacity:1"
         id="rect25902"
         width="99.999405"
         height="99.999405"
         x="3381.0005"
         y="-4484.6372" />
      <circle
         style="opacity:1;fill:#009688;fill-opacity:1;stroke:none;stroke-width:1;stroke-linecap:round;stroke-miterlimit:4;stroke-dasharray:none;stroke-opacity:1"
         id="circle25904"
         cx="3431"
         cy="-4434.6377"
         r="28" />
      <path
         inkscape:connector-curvature="0"
         d="m 3438,-4433.6378 -6,0 0,6 -2,0 0,-6 -6,0 0,-2 6,0 0,-6 2,0 0,6 6,0 0,2 z"
         style="fill:#ffffff;fill-opacity:1;stroke:none"
         id="path24092" />
    </g>
    <flowRoot
       transform="translate(732.88346,627.66399)"
       style="font-style:normal;font-variant:normal;font-weight:normal;font-stretch:normal;font-size:17.80747032px;line-height:125%;font-family:Roboto;-inkscape-font-specification:Roboto;text-align:start;letter-spacing:0px;word-spacing:0px;writing-mode:lr-tb;text-anchor:start;display:inline;fill:#000000;fill-opacity:0.87058824;stroke:none;stroke-width:1px;stroke-linecap:butt;stroke-linejoin:miter;stroke-opacity:1;enable-background:new"
       id="flowRoot13306"
       xml:space="preserve"><flowRegion
         id="flowRegion13308"><rect
           y="-8.4147177"
           x="-0.83251446"
           height="58.312714"
           width="282.099"
           id="rect13310" /></flowRegion><flowPara
         style="font-style:normal;font-variant:normal;font-weight:500;font-stretch:normal;font-size:13.125px;line-height:172.00000286%;font-family:Roboto;-inkscape-font-specification:'Roboto Medium';fill:#000000;fill-opacity:0.87058824"
         id="flowPara13312">Buttons</flowPara></flowRoot>    <g
       id="g5507"
       style="display:inline;filter:url(#filter4284);enable-background:new"
       transform="translate(-2564,5225.4285)">
      <rect
         style="opacity:1;fill:#009688;fill-opacity:1;stroke:none;stroke-width:1;stroke-linecap:round;stroke-miterlimit:4;stroke-dasharray:1, 3;stroke-dashoffset:0;stroke-opacity:0.22352941"
         id="rect5501"
         width="88"
         height="36"
         x="3568"
         y="-4245.6377"
         rx="2"
         ry="2" />
      <flowRoot
         transform="translate(3519.2744,-4232.697)"
         xml:space="preserve"
         id="flowRoot5512"
         style="font-style:normal;font-variant:normal;font-weight:500;font-stretch:normal;font-size:17.95415497px;line-height:125%;font-family:Roboto;-inkscape-font-specification:'Roboto, Medium';text-align:start;letter-spacing:0px;word-spacing:0px;writing-mode:lr-tb;text-anchor:start;display:inline;fill:#ffffff;fill-opacity:1;stroke:none;stroke-width:1px;stroke-linecap:butt;stroke-linejoin:miter;stroke-opacity:1"><flowRegion
           id="flowRegion5514"><rect
             id="rect5516"
             width="185.69725"
             height="82.076134"
             x="-0.12398586"
             y="-3.7940509" /></flowRegion><flowPara
           id="flowPara5518"
           style="font-size:14px;text-align:center;text-anchor:middle;fill:#ffffff;fill-opacity:1">NORMAL</flowPara></flowRoot>    </g>
    <g
       transform="translate(-2564,5333.4285)"
       style="display:inline;filter:url(#filter4346);enable-background:new"
       id="g5514">
      <rect
         ry="2"
         rx="2"
         y="-4245.6377"
         x="3568"
         height="36"
         width="88"
         id="rect5517"
         style="opacity:1;fill:#009688;fill-opacity:1;stroke:none;stroke-width:1;stroke-linecap:round;stroke-miterlimit:4;stroke-dasharray:1, 3;stroke-dashoffset:0;stroke-opacity:0.22352941" />
      <rect
         style="opacity:1;fill:#ffffff;fill-opacity:0.1875;stroke:none;stroke-width:1;stroke-linecap:round;stroke-miterlimit:4;stroke-dasharray:1, 3;stroke-dashoffset:0;stroke-opacity:0.22352941"
         id="rect5527"
         width="88"
         height="36"
         x="3568"
         y="-4245.6377"
         rx="2"
         ry="2" />
      <flowRoot
         style="font-style:normal;font-variant:normal;font-weight:500;font-stretch:normal;font-size:17.95415497px;line-height:125%;font-family:Roboto;-inkscape-font-specification:'Roboto, Medium';text-align:start;letter-spacing:0px;word-spacing:0px;writing-mode:lr-tb;text-anchor:start;display:inline;fill:#ffffff;fill-opacity:1;stroke:none;stroke-width:1px;stroke-linecap:butt;stroke-linejoin:miter;stroke-opacity:1"
         id="flowRoot5519"
         xml:space="preserve"
         transform="translate(3519.2744,-4232.697)"><flowRegion
           id="flowRegion5521"><rect
             y="-3.7940509"
             x="-0.12398586"
             height="82.076134"
             width="185.69725"
             id="rect5523" /></flowRegion><flowPara
           style="font-size:14px;text-align:center;text-anchor:middle;fill:#ffffff;fill-opacity:1"
           id="flowPara5525">PRESSED</flowPara></flowRoot>      <rect
         style="opacity:1;fill:#000000;fill-opacity:0;stroke:none;stroke-width:1;stroke-linecap:round;stroke-miterlimit:4;stroke-dasharray:1, 3;stroke-dashoffset:0;stroke-opacity:0.22352941"
         id="rect5529"
         width="112"
         height="59.999901"
         x="3556"
         y="-4257.6377" />
    </g>
    <g
       style="display:inline;enable-background:new"
       id="g5574"
       transform="translate(-2564,5293.4285)">
      <rect
         style="opacity:1;fill:#000000;fill-opacity:0.07058824;stroke:none;stroke-width:1;stroke-linecap:round;stroke-miterlimit:4;stroke-dasharray:1, 3;stroke-dashoffset:0;stroke-opacity:0.22352941"
         id="rect5576"
         width="88"
         height="36"
         x="3388"
         y="-4205.6377"
         rx="2"
         ry="2" />
      <flowRoot
         transform="translate(3339.2744,-4192.697)"
         xml:space="preserve"
         id="flowRoot5578"
         style="font-style:normal;font-variant:normal;font-weight:500;font-stretch:normal;font-size:17.95415497px;line-height:125%;font-family:Roboto;-inkscape-font-specification:'Roboto, Medium';text-align:start;letter-spacing:0px;word-spacing:0px;writing-mode:lr-tb;text-anchor:start;display:inline;fill:#009688;fill-opacity:1;stroke:none;stroke-width:1px;stroke-linecap:butt;stroke-linejoin:miter;stroke-opacity:1"><flowRegion
           id="flowRegion5580"><rect
             id="rect5582"
             width="185.69725"
             height="82.076134"
             x="-0.12398586"
             y="-3.7940509" /></flowRegion><flowPara
           id="flowPara5584"
           style="font-size:14px;text-align:center;text-anchor:middle;fill:#009688;fill-opacity:1">PRESSED</flowPara></flowRoot>    </g>
    <g
       style="display:inline;enable-background:new"
       id="g4779"
       transform="translate(-2564,5405.4284)">
      <rect
         style="opacity:1;fill:#000000;fill-opacity:0;stroke:none;stroke-width:1;stroke-linecap:round;stroke-miterlimit:4;stroke-dasharray:1, 3;stroke-dashoffset:0;stroke-opacity:0.22352941"
         id="rect4781"
         width="88"
         height="36"
         x="3388"
         y="-4205.6377"
         rx="2"
         ry="2" />
      <flowRoot
         transform="translate(3339.2744,-4192.697)"
         xml:space="preserve"
         id="flowRoot4783"
         style="font-style:normal;font-variant:normal;font-weight:500;font-stretch:normal;font-size:17.95415497px;line-height:125%;font-family:Roboto;-inkscape-font-specification:'Roboto, Medium';text-align:start;letter-spacing:0px;word-spacing:0px;writing-mode:lr-tb;text-anchor:start;display:inline;fill:#009688;fill-opacity:1;stroke:none;stroke-width:1px;stroke-linecap:butt;stroke-linejoin:miter;stroke-opacity:1"><flowRegion
           id="flowRegion4785"><rect
             id="rect4787"
             width="185.69725"
             height="82.076134"
             x="-0.12398586"
             y="-3.7940509" /></flowRegion><flowPara
           id="flowPara4789"
           style="font-size:14px;text-align:center;text-anchor:middle;fill:#000000;fill-opacity:0.38039216">DISABLED</flowPara></flowRoot>    </g>
    <g
       style="display:inline;enable-background:new"
       transform="translate(-2384,5405.4284)"
       id="g5591">
      <rect
         ry="2"
         rx="2"
         y="-4205.6377"
         x="3388"
         height="36"
         width="88"
         id="rect5593"
         style="opacity:1;fill:#000000;fill-opacity:0.07058824;stroke:none;stroke-width:1;stroke-linecap:round;stroke-miterlimit:4;stroke-dasharray:1, 3;stroke-dashoffset:0;stroke-opacity:0.22352941" />
      <flowRoot
         style="font-style:normal;font-variant:normal;font-weight:500;font-stretch:normal;font-size:17.95415497px;line-height:125%;font-family:Roboto;-inkscape-font-specification:'Roboto, Medium';text-align:start;letter-spacing:0px;word-spacing:0px;writing-mode:lr-tb;text-anchor:start;display:inline;fill:#009688;fill-opacity:1;stroke:none;stroke-width:1px;stroke-linecap:butt;stroke-linejoin:miter;stroke-opacity:1"
         id="flowRoot5595"
         xml:space="preserve"
         transform="translate(3339.2744,-4192.697)"><flowRegion
           id="flowRegion5597"><rect
             y="-3.7940509"
             x="-0.12398586"
             height="82.076134"
             width="185.69725"
             id="rect5599" /></flowRegion><flowPara
           style="font-size:14px;text-align:center;text-anchor:middle;fill:#000000;fill-opacity:0.38039216"
           id="flowPara5601">DISABLED</flowPara></flowRoot>    </g>
  </g>
</svg>
