<?xml version="1.0" encoding="UTF-8" standalone="no"?>
<!-- Created with Inkscape (http://www.inkscape.org/) -->

<svg
   xmlns:dc="http://purl.org/dc/elements/1.1/"
   xmlns:cc="http://creativecommons.org/ns#"
   xmlns:rdf="http://www.w3.org/1999/02/22-rdf-syntax-ns#"
   xmlns:svg="http://www.w3.org/2000/svg"
   xmlns="http://www.w3.org/2000/svg"
   xmlns:sodipodi="http://sodipodi.sourceforge.net/DTD/sodipodi-0.dtd"
   xmlns:inkscape="http://www.inkscape.org/namespaces/inkscape"
   width="169.33336mm"
   height="282.22223mm"
   viewBox="0 0 600.00009 1000"
   id="svg9637"
   version="1.1"
   inkscape:version="0.91 r13725"
   sodipodi:docname="tablet.svg">
  <defs
     id="defs9639" />
  <sodipodi:namedview
     id="base"
     pagecolor="#ffffff"
     bordercolor="#666666"
     borderopacity="1.0"
     inkscape:pageopacity="0.0"
     inkscape:pageshadow="2"
     inkscape:zoom="0.7"
     inkscape:cx="258.12597"
     inkscape:cy="481.14019"
     inkscape:document-units="px"
     inkscape:current-layer="layer1"
     showgrid="false"
     fit-margin-top="0"
     fit-margin-left="0"
     fit-margin-right="0"
     fit-margin-bottom="0"
     inkscape:window-width="1983"
     inkscape:window-height="1128"
     inkscape:window-x="65"
     inkscape:window-y="24"
     inkscape:window-maximized="1" />
  <metadata
     id="metadata9642">
    <rdf:RDF>
      <cc:Work
         rdf:about="">
        <dc:format>image/svg+xml</dc:format>
        <dc:type
           rdf:resource="http://purl.org/dc/dcmitype/StillImage" />
        <dc:title></dc:title>
      </cc:Work>
    </rdf:RDF>
  </metadata>
  <g
     inkscape:label="Layer 1"
     inkscape:groupmode="layer"
     id="layer1"
     transform="translate(311.42861,690.49497)">
    <rect
       style="display:inline;opacity:1;fill:#272727;fill-opacity:1;stroke:none;stroke-width:1;stroke-linecap:round;stroke-miterlimit:4;stroke-dasharray:none;stroke-opacity:1;enable-background:new"
       id="rect20140-6"
       width="600"
       height="0.99990004"
       x="-311.42853"
       y="-562.49493" />
    <rect
       style="display:inline;opacity:1;fill:#212121;fill-opacity:1;stroke:none;stroke-width:1;stroke-linecap:round;stroke-miterlimit:4;stroke-dasharray:none;stroke-opacity:1;enable-background:new"
       id="rect16237-7"
       width="600"
       height="64.000023"
       x="-311.42853"
       y="-626.49493" />
    <rect
       y="-650.49493"
       x="-311.42853"
       height="23.999901"
       width="600"
       id="rect16239-8"
       style="display:inline;opacity:1;fill:#000000;fill-opacity:1;stroke:none;stroke-width:1;stroke-linecap:round;stroke-miterlimit:4;stroke-dasharray:none;stroke-opacity:1;enable-background:new" />
    <path
       inkscape:connector-curvature="0"
       d="m 194.58607,-631.49503 8.4927,-10.5812 c -0.3286,-0.2483 -3.5964,-2.921 -8.5,-2.921 -4.9036,0 -8.1714,2.6727 -8.5,2.921 l 8.4927,10.5812 0.01,0.01 0.01,-0.01 z"
       style="display:inline;fill:#ffffff;stroke:none;enable-background:new"
       id="path13799" />
    <path
       inkscape:connector-curvature="0"
       d="m 205.57147,-631.49503 14,0 0,-14 z"
       style="display:inline;fill:#ffffff;stroke:none;enable-background:new"
       id="path13793" />
    <path
       style="display:inline;opacity:1;fill:#ffffff;fill-opacity:1;stroke:none;stroke-width:1;stroke-linecap:round;stroke-miterlimit:4;stroke-dasharray:none;stroke-opacity:1;enable-background:new"
       d="m 231.57147,-645.49393 0,1 -3,0 0,13 9,0 0,-13 -3,0 0,-1 -3,0 z"
       id="rect16196-5"
       inkscape:connector-curvature="0" />
    <flowRoot
       xml:space="preserve"
       id="flowRoot4238-2-0-3"
       style="font-style:normal;font-variant:normal;font-weight:normal;font-stretch:normal;font-size:17.80747032px;line-height:125%;font-family:Roboto;-inkscape-font-specification:Roboto;text-align:start;letter-spacing:0px;word-spacing:0px;writing-mode:lr-tb;text-anchor:start;display:inline;fill:#ffffff;fill-opacity:1;stroke:none;stroke-width:1px;stroke-linecap:butt;stroke-linejoin:miter;stroke-opacity:1;enable-background:new"
       transform="translate(246.24133,-644.16773)"><flowRegion
         id="flowRegion4240-7-2-6"><rect
           id="rect4242-8-3-4"
           width="282.099"
           height="58.312714"
           x="-0.83251446"
           y="-8.4147177"
           style="fill:#ffffff" /></flowRegion><flowPara
         id="flowPara4244-9-7-5"
         style="font-style:normal;font-variant:normal;font-weight:500;font-stretch:normal;font-size:14px;line-height:172.00000286%;font-family:Roboto;-inkscape-font-specification:'Roboto Medium';fill:#ffffff;fill-opacity:1">12:30</flowPara></flowRoot>    <path
       inkscape:connector-curvature="0"
       d="m 258.57147,-597.49493 c 1.105,0 2,-0.895 2,-2 0,-1.105 -0.895,-2 -2,-2 -1.105,0 -2,0.895 -2,2 0,1.105 0.895,2 2,2 z m 0,2 c -1.105,0 -2,0.895 -2,2 0,1.105 0.895,2 2,2 1.105,0 2,-0.895 2,-2 0,-1.105 -0.895,-2 -2,-2 z m 0,6.00001 c -1.105,0 -2,0.895 -2,2 0,1.105 0.895,2 2,2 1.105,0 2,-0.895 2,-2 0,-1.105 -0.895,-2 -2,-2 z"
       style="display:inline;fill:#ffffff;stroke:none;enable-background:new"
       id="path13779" />
    <flowRoot
       xml:space="preserve"
       id="flowRoot27538-6-5"
       style="font-style:normal;font-variant:normal;font-weight:normal;font-stretch:normal;font-size:17.80747032px;line-height:125%;font-family:Roboto;-inkscape-font-specification:Roboto;text-align:start;letter-spacing:0px;word-spacing:0px;writing-mode:lr-tb;text-anchor:start;display:inline;fill:#ffffff;fill-opacity:1;stroke:none;stroke-width:1px;stroke-linecap:butt;stroke-linejoin:miter;stroke-opacity:1;enable-background:new"
       transform="translate(-231.04187,-605.31423)"><flowRegion
         id="flowRegion27540-7-1"><rect
           id="rect27542-8-4"
           width="282.099"
           height="58.312714"
           x="-0.83251446"
           y="-8.4147177"
           style="fill:#ffffff" /></flowRegion><flowPara
         id="flowPara27544-4-4"
         style="font-style:normal;font-variant:normal;font-weight:500;font-stretch:normal;font-size:20px;line-height:172.00000286%;font-family:Roboto;-inkscape-font-specification:'Roboto Medium';fill:#ffffff;fill-opacity:1">Page title</flowPara></flowRoot>    <rect
       style="display:inline;opacity:1;fill:#000000;fill-opacity:1;stroke:none;stroke-width:1;stroke-linecap:round;stroke-miterlimit:4;stroke-dasharray:none;stroke-opacity:1;enable-background:new"
       id="rect22440-9"
       width="600"
       height="47.999992"
       x="-311.42853"
       y="261.5051" />
    <path
       inkscape:connector-curvature="0"
       d="m -11.428531,277.50508 c -4.42,0 -8,3.58 -8,8 0,4.42 3.58,8 8,8 4.4199995,0 7.9999995,-3.58 7.9999995,-8 0,-4.42 -3.58,-8 -7.9999995,-8 z m 0,14 c -3.315,0 -6,-2.685 -6,-6 0,-3.315 2.685,-6 6,-6 3.3149995,0 5.9999995,2.685 5.9999995,6 0,3.315 -2.685,6 -5.9999995,6 z"
       style="display:inline;fill:#e6e6e6;fill-opacity:1;stroke:none;enable-background:new"
       id="path22453-1"
       sodipodi:nodetypes="ssssssssss" />
    <path
       inkscape:connector-curvature="0"
       d="m 121.57157,279.50508 0,12.0001 -12.0001,0 0,-12.0001 12.0001,0 m 0.2222,-1.9999 -12.4445,0 c -0.9822,0 -1.7777,0.7955 -1.7777,1.7777 l 0,12.4445 c 0,0.9822 0.7955,1.7778 1.7777,1.7778 l 12.4445,0 c 0.9822,0 1.7778,-0.7956 1.7778,-1.7778 l 0,-12.4445 c 0,-0.9822 -0.7956,-1.7777 -1.7778,-1.7777 z"
       style="display:inline;fill:#e6e6e6;fill-opacity:1;stroke:none;enable-background:new"
       id="path22446-5"
       sodipodi:nodetypes="cccccsssssssss" />
    <path
       style="display:inline;opacity:1;fill:#e6e6e6;fill-opacity:1;stroke:none;stroke-width:1;stroke-linecap:round;stroke-miterlimit:4;stroke-dasharray:none;stroke-opacity:1;enable-background:new"
       d="m -135.48753,277.51678 a 1.9889367,1.9889367 0 0 0 -0.9355,0.2656 l -10.3926,5.9981 a 1.9889367,1.9889367 0 0 0 0,3.4453 l 10.3926,6 a 1.9889367,1.9889367 0 0 0 2.9824,-1.7227 l 0,-11.998 a 1.9889367,1.9889367 0 0 0 -2.0469,-1.9883 z m 0.059,1.9883 0,11.998 -10.3926,-6 10.3926,-5.998 z"
       id="path22437-0"
       inkscape:connector-curvature="0" />
    <path
       inkscape:connector-curvature="0"
       d="m -267.42853,-594.49493 -12.17,0 5.585,-5.585 -1.415,-1.415 -8,8 8,8.00001 1.415,-1.415 -5.585,-5.58501 12.17,0 0,-2 z"
       style="display:inline;fill:#ffffff;stroke:none;enable-background:new"
       id="path13630" />
    <rect
       y="-561.49493"
       x="-311.42853"
       height="823"
       width="600"
       id="rect13663"
       style="display:inline;opacity:1;fill:#303030;fill-opacity:1;stroke:none;stroke-width:1;stroke-linecap:round;stroke-miterlimit:4;stroke-dasharray:none;stroke-opacity:1;enable-background:new" />
    <flowRoot
       xml:space="preserve"
       id="flowRoot13692"
       style="font-style:normal;font-variant:normal;font-weight:normal;font-stretch:normal;font-size:17.80747032px;line-height:125%;font-family:Roboto;-inkscape-font-specification:Roboto;text-align:start;letter-spacing:0px;word-spacing:0px;writing-mode:lr-tb;text-anchor:start;display:inline;fill:#000000;fill-opacity:0.87058824;stroke:none;stroke-width:1px;stroke-linecap:butt;stroke-linejoin:miter;stroke-opacity:1;enable-background:new"
       transform="translate(-310.88497,-690.10903)"><flowRegion
         id="flowRegion13694"><rect
           id="rect13696"
           width="282.099"
           height="58.312714"
           x="-0.83251446"
           y="-8.4147177" /></flowRegion><flowPara
         id="flowPara13698"
         style="font-style:normal;font-variant:normal;font-weight:500;font-stretch:normal;font-size:13.125px;line-height:172.00000286%;font-family:Roboto;-inkscape-font-specification:'Roboto Medium';fill:#000000;fill-opacity:0.87058824">Tablet 7&quot;</flowPara></flowRoot>  </g>
</svg>
